{
    "tables": {
        "Joomla-Categories": {
            "required": "<h4>Required<\/h4><blockquote>Plugin required for your Joomla 3.x<br\/><a class=\"btn btn-xs btn-danger\" target=\"_blank\" href=\".\/system\/plugin\/com_imabapi.zip\">IMABAPI Module<\/a><\/blockquote>",
            "parent": "categories",
            "title": "categories",
            "template": "thumbnail",
            "template_single": "none",
            "itemtype": "item",
            "itemcolor": "colorful",
            "db_type": "online",
            "db_var": "",
            "db_url": "http:\/\/joomla.co.id\/index.php?option=com_imabapi&json=categories",
            "db_url_single": "",
            "cols": [
                {
                    "label": "ID",
                    "title": "id",
                    "type": "id",
                    "json": "true"
                },
                {
                    "label": "Title",
                    "title": "title",
                    "type": "heading-1",
                    "page_list": "true",
                    "page_detail": "true",
                    "json": "true"
                },
                {
                    "label": "Description",
                    "title": "description",
                    "type": "to_trusted",
                    "page_list": "true",
                    "page_detail": "true",
                    "json": "true"
                },
                {
                    "label": "Hits: [txt]",
                    "title": "hits",
                    "type": "text",
                    "page_list": "true",
                    "page_detail": "true",
                    "json": "true"
                },
                {
                    "label": "image",
                    "title": "image",
                    "type": "images",
                    "page_list": "true",
                    "page_detail": "true",
                    "json": "true"
                }
            ],
            "relation_to": "none",
            "fetch_per_scroll": "1",
            "icon": "ion-social-buffer",
            "languages": {
                "retrieval_error_title": "Network Error",
                "retrieval_error_content": "An error occurred while collecting data.",
                "no_result_found": "No results found...!",
                "pull_for_refresh": "Pull to refresh...",
                "search": "Search",
                "error_messages": "true"
            },
            "option": {
                "gmap": {
                    "api_key": "",
                    "center_map": "48.85693,2.3412"
                }
            },
            "oauth": {
                "consumer_key": "",
                "consumer_secret": ""
            },
            "http_header": [
                {
                    "var": "",
                    "val": ""
                },
                {
                    "var": "",
                    "val": ""
                }
            ],
            "prefix": "categories"
        }
    }
}