{
    "tables": {
        "WP-IMA-WOO_Categories": {
            "parent": "categories",
            "title": "categorie",
            "template": "thumbnail-2",
            "template_single": "none",
            "itemtype": "item",
            "itemcolor": "colorful",
            "db_type": "online",
            "db_var": "",
            "db_url": "http:\/\/demo-wp.com\/wp-json\/ima_wc\/v2\/categories",
            "db_url_single": "",
            "cols": [
                {
                    "label": "id",
                    "title": "id",
                    "type": "id",
                    "page_list": "true",
                    "json": "true"
                },
                {
                    "label": "name",
                    "title": "name",
                    "type": "heading-1",
                    "page_list": "true",
                    "page_detail": "true",
                    "json": "true"
                },
                {
                    "label": "[txt] items",
                    "title": "count",
                    "type": "text",
                    "page_list": "true",
                    "page_detail": "true",
                    "json": "true"
                },
                {
                    "label": "[txt]",
                    "title": "description",
                    "type": "text",
                    "page_list": "true",
                    "json": "true"
                },
                {
                    "label": "image",
                    "title": "image.src",
                    "type": "images",
                    "page_list": "true",
                    "page_detail": "true",
                    "json": "true"
                }
            ],
            "relation_to": "products",
            "fetch_per_scroll": "1",
            "icon": "ion-social-buffer",
            "localstorage": "localforage",
            "bookmarks": "none",
            "languages": {
                "retrieval_error_title": "Network Error",
                "retrieval_error_content": "An error occurred while collecting data.",
                "no_result_found": "No results found...!",
                "pull_for_refresh": "Pull to refresh...",
                "search": "Search",
                "error_messages": "true"
            },
            "option": {
                "gmap": {
                    "api_key": "",
                    "center_map": "48.85693,2.3412"
                },
                "youtube": {
                    "api_key": ""
                }
            },
            "auth": {
                "type": "basic",
                "consumer_key": "admin",
                "consumer_secret": "KMZqF3FkAeLxXbAr"
            },
            "http_header": [
                {
                    "var": "",
                    "val": ""
                },
                {
                    "var": "",
                    "val": ""
                }
            ],
            "prefix": "categorie"
        }
    }
}