{
    "tables": {
        "media": {
            "parent": "medias",
            "title": "media",
            "template": "slidebox-1",
            "template_single": "none",
            "itemtype": "item",
            "itemcolor": "positive-900",
            "db_type": "online",
            "db_var": "",
            "db_url": "http:\/\/demo.ihsana.net\/wordpress\/wp-json\/wp\/v2\/media?media_type=image",
            "db_url_single": "",
            "cols": [
                {
                    "label": "ID",
                    "title": "id",
                    "type": "id",
                    "json": "true"
                },
                {
                    "label": "Title",
                    "title": "title.rendered",
                    "type": "heading-1",
                    "page_list": "true",
                    "page_detail": "true",
                    "json": "true"
                },
                {
                    "label": "Featured",
                    "title": "x_featured_media",
                    "type": "images",
                    "page_list": "true",
                    "json": "true"
                },
                {
                    "label": "Featured Original",
                    "title": "x_featured_media_original",
                    "type": "images",
                    "page_detail": "true",
                    "json": "true"
                },
                {
                    "label": "[txt]",
                    "title": "caption",
                    "type": "text",
                    "page_list": "true",
                    "page_detail": "true",
                    "json": "true"
                },
                {
                    "label": "description",
                    "title": "description",
                    "type": "text",
                    "page_list": "true",
                    "page_detail": "true",
                    "json": "true"
                },
                {
                    "label": "<span class=\"icon ion-android-calendar calm\"> [txt]<\/span>",
                    "title": "x_date",
                    "type": "text",
                    "page_list": "true",
                    "page_detail": "true",
                    "json": "true"
                },
                {
                    "label": "<span class=\"icon ion-android-contact calm\"> [txt]<\/span>",
                    "title": "x_author",
                    "type": "text",
                    "page_list": "true",
                    "page_detail": "true",
                    "json": "true"
                },
                {
                    "label": "Share Link",
                    "title": "link",
                    "type": "share_link",
                    "page_detail": "true",
                    "json": "true"
                },
                {
                    "label": "Link",
                    "title": "link",
                    "type": "link",
                    "page_detail": "true",
                    "json": "true"
                }
            ],
            "relation_to": "none",
            "fetch_per_scroll": "1",
            "icon": "ion-social-buffer",
            "localstorage": "none",
            "bookmarks": "none",
            "languages": {
                "retrieval_error_title": "Network Error",
                "retrieval_error_content": "An error occurred while collecting data.",
                "no_result_found": "No results found...!",
                "pull_for_refresh": "Pull to refresh...",
                "search": "Search",
                "error_messages": "true"
            },
            "option": {
                "gmap": {
                    "api_key": "",
                    "center_map": "48.85693,2.3412"
                },
                "youtube": {
                    "api_key": ""
                }
            },
            "auth": {
                "type": "none",
                "consumer_key": "",
                "consumer_secret": ""
            },
            "http_header": [
                {
                    "var": "",
                    "val": ""
                },
                {
                    "var": "",
                    "val": ""
                }
            ],
            "prefix": "media"
        }
    }
}